<?xml version="1.0" encoding="UTF-8"?>
<svg width="88px" height="88px" viewBox="0 0 88 88" version="1.1" xmlns="http://www.w3.org/2000/svg" xmlns:xlink="http://www.w3.org/1999/xlink">
    <!-- Generator: Sketch 47.1 (45422) - http://www.bohemiancoding.com/sketch -->
    <title>Group 20</title>
    <desc>Created with Sketch.</desc>
    <defs></defs>
    <g id="Page-1" stroke="none" stroke-width="1" fill="none" fill-rule="evenodd">
        <g id="6-web---Акции---диалоговое-окно" transform="translate(-633.000000, -398.000000)">
            <g id="Group-20" transform="translate(633.000000, 398.000000)">
                <text id="!" font-family="HelveticaNeue-Light, Helvetica Neue" font-size="63" font-weight="300" letter-spacing="-0.984375" fill="#F3BB81">
                    <tspan x="36.5" y="67">!</tspan>
                </text>
                <path d="M44,0 L44,0 C68.300529,-4.46393476e-15 88,19.699471 88,44 L88,44 C88,68.300529 68.300529,88 44,88 C19.699471,88 2.9759565e-15,68.300529 0,44 L0,44 L0,44 C-2.9759565e-15,19.699471 19.699471,4.46393476e-15 44,0 L44,0 Z M44,4 L44,4 C21.90861,4 4,21.90861 4,44 L4,44 L4,44 C4,66.09139 21.90861,84 44,84 C66.09139,84 84,66.09139 84,44 L84,44 C84,21.90861 66.09139,4 44,4 L44,4 Z" id="Rectangle-21" fill="#F4D47F"></path>
            </g>
        </g>
    </g>
</svg>